<svg width="16" height="12" viewBox="0 0 16 12" fill="none" xmlns="http://www.w3.org/2000/svg">
<path d="M14.875 1.625L6.125 10.3746L1.75 6" stroke="#D9DAE4" stroke-width="2" stroke-linecap="round" stroke-linejoin="round"/>
</svg>
