<svg width="22" height="22" viewBox="0 0 22 22" fill="none" xmlns="http://www.w3.org/2000/svg">
<path d="M17.2863 10.9402L19.2465 14.3354" stroke="#101431" stroke-width="1.2" stroke-linecap="round" stroke-linejoin="round"/>
<path d="M13.25 12.8273L13.8613 16.2943" stroke="#101431" stroke-width="1.2" stroke-linecap="round" stroke-linejoin="round"/>
<path d="M8.7424 12.8256L8.13097 16.2932" stroke="#101431" stroke-width="1.2" stroke-linecap="round" stroke-linejoin="round"/>
<path d="M4.71012 10.9375L2.74045 14.3491" stroke="#101431" stroke-width="1.2" stroke-linecap="round" stroke-linejoin="round"/>
<path d="M2.74995 9.0127C4.19478 10.8011 6.84351 13.0625 11 13.0625C15.1565 13.0625 17.8052 10.8011 19.25 9.01271" stroke="#101431" stroke-width="1.2" stroke-linecap="round" stroke-linejoin="round"/>
</svg>
