<svg width="22" height="22" viewBox="0 0 22 22" fill="none" xmlns="http://www.w3.org/2000/svg">
<path d="M3.4375 10.9999C3.4375 12.3288 4.51481 13.4061 5.84375 13.4061C7.17268 13.4061 8.25 12.3288 8.25 10.9999C8.25 9.67094 7.17269 8.59363 5.84375 8.59363C4.51481 8.59363 3.4375 9.67094 3.4375 10.9999Z" stroke="#3B51F9" stroke-width="1.2" stroke-linecap="round" stroke-linejoin="round"/>
<path d="M13.75 16.1561C13.75 17.4851 14.8273 18.5624 16.1562 18.5624C17.4852 18.5624 18.5625 17.4851 18.5625 16.1561C18.5625 14.8272 17.4852 13.7499 16.1562 13.7499C14.8273 13.7499 13.75 14.8272 13.75 16.1561Z" stroke="#3B51F9" stroke-width="1.2" stroke-linecap="round" stroke-linejoin="round"/>
<path d="M13.75 5.84375C13.75 7.17268 14.8273 8.25 16.1562 8.25C17.4852 8.25 18.5625 7.17269 18.5625 5.84375C18.5625 4.51481 17.4852 3.4375 16.1562 3.4375C14.8273 3.4375 13.75 4.51481 13.75 5.84375Z" stroke="#3B51F9" stroke-width="1.2" stroke-linecap="round" stroke-linejoin="round"/>
<path d="M13.75 5.84363L13.0623 5.84363C12.7915 5.84363 12.5233 5.89698 12.273 6.00063C12.0228 6.10428 11.7954 6.25621 11.6039 6.44773C11.4124 6.63926 11.2605 6.86663 11.1568 7.11687C11.0532 7.36711 10.9998 7.63531 10.9998 7.90617L11 14.0937C11 14.6407 11.2173 15.1653 11.6041 15.5521C11.9909 15.9388 12.5155 16.1561 13.0625 16.1561L13.75 16.1561" stroke="#3B51F9" stroke-width="1.2" stroke-linecap="round" stroke-linejoin="round"/>
<path d="M11 11.0001L8.25 10.9999" stroke="#3B51F9" stroke-width="1.2" stroke-linecap="round" stroke-linejoin="round"/>
</svg>
