<svg width="23" height="22" viewBox="0 0 23 22" fill="none" xmlns="http://www.w3.org/2000/svg">
<path d="M11.744 18.5625C11.744 18.5625 3.00049 13.75 3.00049 7.90626C3.00067 6.8734 3.36479 5.87249 4.03095 5.07368C4.6971 4.27488 5.62418 3.7275 6.65455 3.5246C7.68492 3.3217 8.75499 3.47581 9.68282 3.96072C10.6106 4.44564 11.339 5.23143 11.744 6.1845L11.7439 6.18451C12.1489 5.23144 12.8773 4.44564 13.8051 3.96073C14.7329 3.47581 15.803 3.3217 16.8334 3.5246C17.8637 3.7275 18.7908 4.27488 19.457 5.07368C20.1231 5.87249 20.4872 6.8734 20.4874 7.90626C20.4874 13.75 11.744 18.5625 11.744 18.5625Z" stroke="#9093AE" stroke-width="1.2" stroke-linecap="round" stroke-linejoin="round"/>
</svg>
