<svg width="23" height="22" viewBox="0 0 23 22" fill="none" xmlns="http://www.w3.org/2000/svg">
<path d="M11.8438 18.5625H4.59635C4.42162 18.5625 4.25403 18.4931 4.13047 18.3695C4.00691 18.246 3.9375 18.0784 3.9375 17.9036V10.6562C3.9375 9.61797 4.142 8.58988 4.53933 7.63065C4.93665 6.67142 5.51902 5.79984 6.25318 5.06568C6.98734 4.33152 7.85892 3.74915 8.81815 3.35183C9.77738 2.9545 10.8055 2.75 11.8437 2.75H11.8438C12.882 2.75 13.9101 2.9545 14.8693 3.35183C15.8286 3.74915 16.7001 4.33152 17.4343 5.06569C18.1685 5.79985 18.7508 6.67143 19.1482 7.63066C19.5455 8.58989 19.75 9.61799 19.75 10.6562V10.6563C19.75 12.7531 18.917 14.7641 17.4343 16.2468C15.9516 17.7295 13.9406 18.5625 11.8438 18.5625Z" stroke="#D9DAE4" stroke-width="1.2" stroke-linecap="round" stroke-linejoin="round"/>
<path d="M9.09375 9.625H14.25" stroke="#D9DAE4" stroke-width="1.2" stroke-linecap="round" stroke-linejoin="round"/>
<path d="M9.09375 12.375H14.25" stroke="#D9DAE4" stroke-width="1.2" stroke-linecap="round" stroke-linejoin="round"/>
</svg>
