<svg width="23" height="22" viewBox="0 0 23 22" fill="none" xmlns="http://www.w3.org/2000/svg">
<path d="M8.46523 18.5624H4.625C4.44266 18.5624 4.2678 18.49 4.13886 18.361C4.00993 18.2321 3.9375 18.0572 3.9375 17.8749V14.0347C3.9375 13.9444 3.95528 13.855 3.98983 13.7716C4.02438 13.6882 4.07502 13.6124 4.13886 13.5485L14.4514 3.23603C14.5803 3.1071 14.7552 3.03467 14.9375 3.03467C15.1198 3.03467 15.2947 3.1071 15.4236 3.23603L19.2639 7.07626C19.3928 7.20519 19.4652 7.38006 19.4652 7.5624C19.4652 7.74473 19.3928 7.9196 19.2639 8.04853L8.95136 18.361C8.88752 18.4249 8.81173 18.4755 8.72832 18.5101C8.64491 18.5446 8.55551 18.5624 8.46523 18.5624Z" stroke="#3B51F9" stroke-width="1.3" stroke-linecap="round" stroke-linejoin="round"/>
<path d="M12.1875 5.5L17 10.3125" stroke="#3B51F9" stroke-width="1.3" stroke-linecap="round" stroke-linejoin="round"/>
<path d="M8.70605 18.5188L3.9812 13.7939" stroke="#3B51F9" stroke-width="1.3" stroke-linecap="round" stroke-linejoin="round"/>
</svg>
