<svg width="22" height="22" viewBox="0 0 22 22" fill="none" xmlns="http://www.w3.org/2000/svg">
<path d="M4.8125 15.125H12.375" stroke="#F92424" stroke-width="1.2" stroke-linecap="round" stroke-linejoin="round"/>
<path d="M7.5625 18.5625V3.4375H12.7188C13.9039 3.4375 15.0406 3.90831 15.8786 4.74637C16.7167 5.58442 17.1875 6.72106 17.1875 7.90625C17.1875 9.09144 16.7167 10.2281 15.8786 11.0661C15.0406 11.9042 13.9039 12.375 12.7188 12.375H4.8125" stroke="#F92424" stroke-width="1.2" stroke-linecap="round" stroke-linejoin="round"/>
</svg>
