<svg width="22" height="22" viewBox="0 0 22 22" fill="none" xmlns="http://www.w3.org/2000/svg">
<path d="M3.08125 15.584L18.9187 15.584C19.7934 15.584 20.5024 14.9912 20.5024 14.2599V4.99139C20.5024 4.26013 19.7934 3.66732 18.9187 3.66732L3.08125 3.66732C2.20657 3.66732 1.49751 4.26013 1.49751 4.99139V14.2599C1.49751 14.9912 2.20657 15.584 3.08125 15.584Z" stroke="#101431" stroke-width="1.2" stroke-linecap="round" stroke-linejoin="round"/>
<path d="M13.75 18.3335H8.25" stroke="#101431" stroke-width="1.2" stroke-linecap="round" stroke-linejoin="round"/>
<path d="M11 15.5835V18.3335" stroke="#101431" stroke-width="1.2" stroke-linecap="round" stroke-linejoin="round"/>
</svg>

