<svg width="22" height="22" viewBox="0 0 22 22" fill="none" xmlns="http://www.w3.org/2000/svg">
<path d="M7.39062 9.45312L11 13.0625L14.6094 9.45312" stroke="#3B51F9" stroke-width="1.2" stroke-linecap="round" stroke-linejoin="round"/>
<path d="M11 3.43506V13.0601" stroke="#3B51F9" stroke-width="1.2" stroke-linecap="round" stroke-linejoin="round"/>
<path d="M19.25 11.6875V17.875C19.25 18.0573 19.1776 18.2322 19.0486 18.3611C18.9197 18.4901 18.7448 18.5625 18.5625 18.5625H3.4375C3.25516 18.5625 3.0803 18.4901 2.95136 18.3611C2.82243 18.2322 2.75 18.0573 2.75 17.875V11.6875" stroke="#3B51F9" stroke-width="1.2" stroke-linecap="round" stroke-linejoin="round"/>
</svg>