<svg width="22" height="22" viewBox="0 0 22 22" fill="none" xmlns="http://www.w3.org/2000/svg">
<path d="M15.125 13.0625L19.25 8.9375L15.125 4.8125" stroke="#9093AE" stroke-width="1.2" stroke-linecap="round" stroke-linejoin="round"/>
<path d="M2.75 17.1875C2.75 14.9995 3.61919 12.901 5.16637 11.3539C6.71354 9.80669 8.81196 8.9375 11 8.9375H19.25" stroke="#9093AE" stroke-width="1.2" stroke-linecap="round" stroke-linejoin="round"/>
</svg>
