<svg width="24" height="24" viewBox="0 0 24 24" fill="none" xmlns="http://www.w3.org/2000/svg">
<path d="M12.0007 21.4926C17.2434 21.4926 21.4935 17.2425 21.4935 11.9997C21.4935 6.75693 17.2434 2.50684 12.0007 2.50684C6.75791 2.50684 2.50781 6.75693 2.50781 11.9997C2.50781 17.2425 6.75791 21.4926 12.0007 21.4926Z" stroke="#9093AE" stroke-width="1.29982" stroke-linecap="round" stroke-linejoin="round"/>
<path d="M11.25 11.25H12.0001L12 16.5H12.75" stroke="#9093AE" stroke-width="1.3" stroke-linecap="round" stroke-linejoin="round"/>
<path d="M12 8.8125C12.5178 8.8125 12.9375 8.39277 12.9375 7.875C12.9375 7.35723 12.5178 6.9375 12 6.9375C11.4822 6.9375 11.0625 7.35723 11.0625 7.875C11.0625 8.39277 11.4822 8.8125 12 8.8125Z" fill="#9093AE"/>
</svg>
