<svg width="22" height="22" viewBox="0 0 22 22" fill="none" xmlns="http://www.w3.org/2000/svg">
<path d="M18.5625 6.1875L8.9375 15.8121L4.125 11" stroke="#3b51f9" stroke-width="1.2" stroke-linecap="round" stroke-linejoin="round"/>
</svg>
