<svg width="22" height="22" viewBox="0 0 22 22" fill="none" xmlns="http://www.w3.org/2000/svg">
<path d="M18.5625 4.125H3.4375C3.0578 4.125 2.75 4.4328 2.75 4.8125V17.1875C2.75 17.5672 3.0578 17.875 3.4375 17.875H18.5625C18.9422 17.875 19.25 17.5672 19.25 17.1875V4.8125C19.25 4.4328 18.9422 4.125 18.5625 4.125Z" stroke="#9093AE" stroke-width="1.2" stroke-linecap="round" stroke-linejoin="round"/>
<path d="M2.75 14.4374L7.07635 10.111C7.14019 10.0472 7.21598 9.99655 7.29939 9.962C7.3828 9.92745 7.4722 9.90967 7.56249 9.90967C7.65277 9.90967 7.74217 9.92745 7.82558 9.962C7.90899 9.99655 7.98478 10.0472 8.04862 10.111L11.8889 13.9513C11.9527 14.0151 12.0285 14.0657 12.1119 14.1003C12.1953 14.1348 12.2847 14.1526 12.375 14.1526C12.4653 14.1526 12.5547 14.1348 12.6381 14.1003C12.7215 14.0657 12.7973 14.0151 12.8611 13.9513L14.6389 12.1735C14.7027 12.1097 14.7785 12.0591 14.8619 12.0245C14.9453 11.99 15.0347 11.9722 15.125 11.9722C15.2153 11.9722 15.3047 11.99 15.3881 12.0245C15.4715 12.0591 15.5473 12.1097 15.6111 12.1735L19.25 15.8124" stroke="#9093AE" stroke-width="1.2" stroke-linecap="round" stroke-linejoin="round"/>
<path d="M13.4062 9.45312C13.8809 9.45312 14.2656 9.06837 14.2656 8.59375C14.2656 8.11913 13.8809 7.73438 13.4062 7.73438C12.9316 7.73438 12.5469 8.11913 12.5469 8.59375C12.5469 9.06837 12.9316 9.45312 13.4062 9.45312Z" fill="#9093AE"/>
</svg>
