<svg width="23" height="22" viewBox="0 0 23 22" fill="none" xmlns="http://www.w3.org/2000/svg">
<path d="M18.375 3.4375H4.625C4.2453 3.4375 3.9375 3.7453 3.9375 4.125V17.875C3.9375 18.2547 4.2453 18.5625 4.625 18.5625H18.375C18.7547 18.5625 19.0625 18.2547 19.0625 17.875V4.125C19.0625 3.7453 18.7547 3.4375 18.375 3.4375Z" stroke="#fff" stroke-width="1.2" stroke-linecap="round" stroke-linejoin="round"/>
<path d="M15.625 2.0625V4.8125" stroke="#fff" stroke-width="1.2" stroke-linecap="round" stroke-linejoin="round"/>
<path d="M7.375 2.0625V4.8125" stroke="#fff" stroke-width="1.2" stroke-linecap="round" stroke-linejoin="round"/>
<path d="M3.9375 7.5625H19.0625" stroke="#fff" stroke-width="1.2" stroke-linecap="round" stroke-linejoin="round"/>
</svg>