<svg width="32" height="32" viewBox="0 0 32 32" fill="none" xmlns="http://www.w3.org/2000/svg">
<path d="M27.5185 15.1468L9.52146 4.14819C9.36988 4.05555 9.19634 4.00497 9.01872 4.00164C8.8411 3.99831 8.6658 4.04237 8.51085 4.12927C8.3559 4.21617 8.2269 4.34277 8.13711 4.49607C8.04733 4.64936 8 4.82381 8 5.00146V26.9986C8 27.1763 8.04733 27.3507 8.13711 27.504C8.2269 27.6573 8.3559 27.7839 8.51085 27.8708C8.6658 27.9577 8.8411 28.0018 9.01872 27.9984C9.19634 27.9951 9.36988 27.9445 9.52146 27.8519L27.5185 16.8533C27.6647 16.764 27.7855 16.6386 27.8693 16.4892C27.9531 16.3398 27.9971 16.1713 27.9971 16C27.9971 15.8287 27.9531 15.6603 27.8693 15.5109C27.7855 15.3615 27.6647 15.2361 27.5185 15.1468Z" fill="#101431" stroke="#101431" stroke-width="2" stroke-linecap="round" stroke-linejoin="round"/>
</svg>
