<svg width="23" height="22" viewBox="0 0 23 22" fill="none" xmlns="http://www.w3.org/2000/svg">
<path d="M7.89062 9.45312L11.5 13.0625L15.1094 9.45312" stroke="#ffffff" stroke-width="1.2" stroke-linecap="round" stroke-linejoin="round"/>
<path d="M11.5 3.43457V13.0596" stroke="#ffffff" stroke-width="1.2" stroke-linecap="round" stroke-linejoin="round"/>
<path d="M19.75 11.6875V17.875C19.75 18.0573 19.6776 18.2322 19.5486 18.3611C19.4197 18.4901 19.2448 18.5625 19.0625 18.5625H3.9375C3.75516 18.5625 3.5803 18.4901 3.45136 18.3611C3.32243 18.2322 3.25 18.0573 3.25 17.875V11.6875" stroke="#ffffff" stroke-width="1.2" stroke-linecap="round" stroke-linejoin="round"/>
</svg>
