<svg width="12" height="12" viewBox="0 0 12 12" fill="none" xmlns="http://www.w3.org/2000/svg">
<path d="M12 6C12 9.31371 9.31371 12 6 12C2.68629 12 0 9.31371 0 6C0 2.68629 2.68629 0 6 0C9.31371 0 12 2.68629 12 6Z" fill="#FFDADA"/>
<path d="M8.50003 6.00001C8.50003 7.38073 7.38073 8.50003 6.00001 8.50003C4.61929 8.50003 3.5 7.38073 3.5 6.00001C3.5 4.61929 4.61929 3.5 6.00001 3.5C7.38073 3.5 8.50003 4.61929 8.50003 6.00001Z" fill="#F92424"/>
</svg>
