<svg width="22" height="22" viewBox="0 0 22 22" fill="none" xmlns="http://www.w3.org/2000/svg">
<path d="M11 13.75C14.0376 13.75 16.5 11.2876 16.5 8.25C16.5 5.21243 14.0376 2.75 11 2.75C7.96243 2.75 5.5 5.21243 5.5 8.25C5.5 11.2876 7.96243 13.75 11 13.75Z" stroke="#101431" stroke-width="1.2" stroke-linecap="round" stroke-linejoin="round"/>
<path d="M2.66309 18.5617C3.50833 17.0987 4.72371 15.8838 6.18711 15.0392C7.65052 14.1946 9.31042 13.75 11.0001 13.75C12.6897 13.75 14.3496 14.1947 15.813 15.0393C17.2764 15.884 18.4917 17.0988 19.3369 18.5619" stroke="#101431" stroke-width="1.2" stroke-linecap="round" stroke-linejoin="round"/>
</svg>
