<svg width="22" height="22" viewBox="0 0 22 22" fill="none" xmlns="http://www.w3.org/2000/svg">
<path d="M17 11C17 11.8284 17.6716 12.5 18.5 12.5C19.3284 12.5 20 11.8284 20 11C20 10.1716 19.3284 9.5 18.5 9.5C17.6716 9.5 17 10.1716 17 11Z" fill="white"/>
<path d="M9 11C9 11.8284 9.67157 12.5 10.5 12.5C11.3284 12.5 12 11.8284 12 11C12 10.1716 11.3284 9.5 10.5 9.5C9.67157 9.5 9 10.1716 9 11Z" fill="white"/>
<path d="M2 11C2 11.8284 2.67157 12.5 3.5 12.5C4.32843 12.5 5 11.8284 5 11C5 10.1716 4.32843 9.5 3.5 9.5C2.67157 9.5 2 10.1716 2 11Z" fill="white"/>
</svg>
