<?xml version="1.0" encoding="utf-8"?>
<!-- Generator: Adobe Illustrator 24.3.0, SVG Export Plug-In . SVG Version: 6.00 Build 0)  -->
<svg version="1.1" id="Слой_1" xmlns="http://www.w3.org/2000/svg" xmlns:xlink="http://www.w3.org/1999/xlink" x="0px" y="0px"
	 viewBox="0 0 395 132.7" style="enable-background:new 0 0 395 132.7;" xml:space="preserve">
<style type="text/css">
	.st0{fill:#191919;}
	.st1{fill:url(#SVGID_1_);}
	.st2{fill:url(#SVGID_2_);}
</style>
<g>
	<path class="st0" d="M158.9,19.6c2.4-3.4,6-5.2,10.6-5.2c4.4,0,8,1.5,10.5,4.6c2.6,3.1,3.9,7,3.8,11c0.1,4-1.3,7.9-3.8,11
		c-2.6,3.1-6.1,4.6-10.5,4.6c-1.8,0.1-3.6-0.2-5.3-0.9c-1.7-0.7-3.2-1.7-4.4-3.1v16.7h-8.5v-43h7.5V19.6z M173.1,36.1
		c1.4-1.7,2.1-3.8,2.1-6c0.1-2.2-0.7-4.3-2.1-6c-0.7-0.8-1.6-1.4-2.5-1.9c-1-0.4-2-0.6-3.1-0.6c-1.7,0-3.3,0.5-4.7,1.4
		c-1.3,0.9-2.3,2.1-3,3.5v7c0.6,1.4,1.7,2.6,3,3.5c1.4,0.9,3,1.4,4.7,1.4c1.1,0,2.1-0.2,3.1-0.6C171.6,37.5,172.4,36.9,173.1,36.1z"
		/>
	<path class="st0" d="M191.6,1.8h8.5v16.2c2.4-2.3,5.6-3.6,8.9-3.5c3.8,0,6.7,1.1,8.8,3.4c2.1,2.4,3.2,5.5,3.1,8.7v18.2h-8.5V27.7
		c0.1-0.8-0.1-1.6-0.3-2.3c-0.3-0.8-0.7-1.4-1.2-2c-1.1-1-2.6-1.5-4.1-1.5c-2.7,0-4.8,1.2-6.6,3.7v19.2h-8.5V1.8z"/>
	<path class="st0" d="M242.7,35.2l7.3-19.9h8.9l-13.1,33c-2.9,7.2-7.1,10.7-12.7,10.7c-1.6,0-3.1-0.3-4.6-0.7v-7
		c1.2,0.3,2.4,0.4,3.5,0.4c3.1,0,5.4-2.1,7-6.4l0.1-0.1l-14-29.9h9L242.7,35.2z"/>
	<path class="st0" d="M265.9,41.1c-2.6-3.1-4-7-3.9-11c-0.1-4,1.3-7.9,3.9-11c2.6-3,6.1-4.6,10.6-4.6c4.6,0,8.2,1.7,10.6,5.2v-4.3
		h7.5V44c0.1,2.4-0.4,4.9-1.4,7.1c-0.8,1.9-2.1,3.5-3.8,4.7c-1.6,1.1-3.4,2-5.4,2.5c-2.1,0.6-4.2,0.9-6.3,0.8
		c-4.3,0-8.6-0.9-12.5-2.8v-7.5c3.4,2,7.4,3.1,11.4,3.1c6.4,0,9.6-2.5,9.6-7.6v-2.7c-1.2,1.3-2.7,2.4-4.4,3.1
		c-1.7,0.7-3.5,1-5.3,0.9C272,45.7,268.5,44.2,265.9,41.1z M286.2,26.6c-0.6-1.4-1.7-2.7-3-3.5c-1.4-0.9-3-1.4-4.7-1.4
		c-1.1,0-2.1,0.2-3.1,0.6c-1,0.4-1.9,1.1-2.5,1.9c-1.4,1.7-2.1,3.8-2.1,6c-0.1,2.2,0.7,4.3,2.1,6c0.7,0.8,1.6,1.4,2.5,1.9
		c1,0.4,2,0.6,3.1,0.6c1.7,0,3.3-0.4,4.7-1.3c1.3-0.8,2.3-2,3-3.4L286.2,26.6z"/>
	<path class="st0" d="M313.2,5.6c0.1,0.7,0,1.3-0.3,2c-0.2,0.6-0.6,1.2-1.1,1.7c-1,0.8-2.3,1.3-3.6,1.2c-1.3,0-2.6-0.4-3.5-1.2
		c-0.5-0.5-0.9-1-1.1-1.7c-0.2-0.6-0.3-1.3-0.3-2c0-0.7,0.1-1.3,0.3-1.9c0.2-0.6,0.6-1.2,1.1-1.6c1-0.8,2.3-1.3,3.5-1.2
		c1.3,0,2.6,0.4,3.5,1.2c0.5,0.4,0.9,1,1.1,1.6C313.1,4.3,313.2,4.9,313.2,5.6z M312.5,44.8h-8.5V15.3h8.5V44.8z"/>
	<path class="st0" d="M323.8,6.8l8.4-2v10.6h9.3v7.2h-9.3v11.5c0,2.9,1.6,4.4,4.7,4.4c1.8,0,3.6-0.3,5.3-1v6.9
		c-2.5,0.9-5.2,1.3-7.9,1.3c-2.7,0.1-5.4-0.7-7.6-2.4c-2-1.6-3-4.1-3-7.6V22.5h-5v-7.2h5L323.8,6.8z"/>
	<path class="st0" d="M376.2,37.2c0,1.3,0.7,2,2.1,2c0.5,0,1.1-0.1,1.6-0.2v5.6c-1.5,0.6-3.1,0.9-4.7,0.9c-3.1,0-5.3-1.1-6.5-3.3
		c-3,2.4-6.8,3.7-10.6,3.6c-2.7,0.1-5.2-0.8-7.3-2.4c-1-0.8-1.8-1.8-2.3-2.9c-0.5-1.1-0.8-2.4-0.7-3.7c-0.1-2.1,0.7-4.2,2.1-5.8
		c1.3-1.5,3-2.6,4.8-3.2c2-0.6,4-0.8,6-0.8c2.4,0,4.7,0.3,7,0.8v-1.1c0-0.7-0.1-1.4-0.4-2c-0.3-0.6-0.8-1.2-1.3-1.6
		c-1.5-1-3.3-1.5-5.1-1.4c-3.6,0.1-7.1,0.8-10.4,2.2v-7.4c3.7-1.3,7.5-1.9,11.4-2c9.7,0,14.5,4.4,14.5,13.3L376.2,37.2z M362.7,31.9
		c-1.5-0.1-3.1,0.3-4.4,1c-0.6,0.3-1,0.7-1.3,1.3c-0.3,0.5-0.5,1.2-0.4,1.8c0,0.5,0.1,1,0.3,1.5c0.2,0.5,0.6,0.8,1,1.1
		c0.9,0.7,2.1,1.1,3.3,1c2.4,0.1,4.8-0.8,6.6-2.4v-4.6C366.1,32.2,364.4,32,362.7,31.9z"/>
	<path class="st0" d="M386.5,0h8.5v44.8h-8.5V0z"/>
	<path class="st0" d="M150.5,96.8c-0.1-1.2,0.2-2.5,0.8-3.6c0.6-1.1,1.4-2,2.5-2.7c2.4-1.5,5.2-2.2,8-2.1c3.6,0,7.2,0.8,10.4,2.5
		v4.7c-1.4-0.9-3-1.6-4.7-2c-1.8-0.5-3.6-0.8-5.5-0.8c-1.6,0-3.2,0.3-4.6,1c-0.6,0.2-1.1,0.6-1.4,1.2c-0.3,0.5-0.5,1.1-0.5,1.8
		c0,0.5,0.1,1,0.4,1.4c0.2,0.4,0.6,0.8,1,1.1c1,0.8,2.2,1.3,3.5,1.6c1.4,0.4,2.9,0.8,4.5,1.4c1.6,0.6,3.1,1.1,4.5,1.7
		c1.4,0.6,2.6,1.5,3.5,2.7c0.9,1.2,1.4,2.8,1.4,4.3c0.1,1.3-0.2,2.5-0.8,3.6c-0.6,1.1-1.5,2-2.6,2.7c-2.7,1.4-5.7,2.1-8.7,2
		c-4.6,0-8.4-1-11.4-2.9v-4.8c3.3,2.2,7.2,3.2,11.2,3.1c5,0,7.5-1.2,7.5-3.6c0-0.6-0.2-1.2-0.6-1.7c-0.3-0.5-0.8-0.9-1.4-1.1
		c-1.5-0.8-3.1-1.5-4.7-1.9c-1.8-0.5-3.7-1.1-5.5-1.8c-1.8-0.6-3.4-1.6-4.7-3c-0.6-0.6-1.1-1.4-1.5-2.2
		C150.7,98.6,150.5,97.7,150.5,96.8z"/>
	<path class="st0" d="M187.3,77.3c0.6,0.6,0.9,1.4,0.9,2.3c0,0.9-0.3,1.7-0.9,2.3c-0.6,0.5-1.4,0.8-2.3,0.8c-0.8,0-1.6-0.3-2.3-0.8
		c-0.6-0.6-0.9-1.4-0.9-2.3c0-0.9,0.3-1.7,0.9-2.3c0.6-0.5,1.4-0.8,2.3-0.8C185.8,76.5,186.6,76.8,187.3,77.3z M187.5,118.5h-4.9V89
		h4.9V118.5z"/>
	<path class="st0" d="M200.4,114.8c-2.7-3-4.2-7-4.2-11.1c0-4.1,1.5-8,4.2-11.1c1.3-1.4,3-2.6,4.8-3.3c1.8-0.8,3.8-1.1,5.7-1.1
		c2.3,0,4.5,0.5,6.6,1.5c2.1,1,3.9,2.4,5.3,4.2V89h4.4v29.5c0,4.7-1.6,8.3-4.7,10.6c-3.3,2.4-7.3,3.7-11.4,3.5
		c-4.2,0.1-8.3-0.9-12-2.8v-4.8c3.5,2,7.4,3,11.4,3c3,0.1,6-0.7,8.5-2.3c2.2-1.5,3.3-4,3.3-7.4v-4.5c-1.4,1.7-3.1,3.1-5.1,4
		c-2,0.9-4.2,1.4-6.3,1.3c-2,0.1-3.9-0.3-5.7-1.1C203.4,117.4,201.7,116.3,200.4,114.8z M222.3,100.1c-0.9-2.1-2.4-3.8-4.2-5.2
		c-1.9-1.4-4.3-2.1-6.6-2.1c-1.4,0-2.7,0.2-4,0.7c-1.3,0.5-2.4,1.3-3.4,2.3c-1.9,2.2-3,5-3,7.9c0,2.9,1.1,5.7,3,7.9
		c1,1,2.1,1.8,3.4,2.3c1.3,0.5,2.6,0.8,4,0.7c2.4,0,4.7-0.6,6.6-1.9c1.8-1.2,3.3-2.8,4.2-4.7V100.1z"/>
	<path class="st0" d="M242.3,93.4c1.2-1.5,2.7-2.8,4.4-3.6c1.9-1,4-1.5,6.2-1.5c1.6-0.1,3.2,0.2,4.7,0.8c1.5,0.6,2.9,1.4,4.1,2.6
		c1.2,1.1,2.1,2.5,2.7,4c0.6,1.5,0.9,3.1,0.8,4.7v18.2h-4.9v-17.6c0-2.7-0.7-4.7-2.2-6c-1.6-1.4-3.6-2.2-5.7-2.1c-3.8,0-7,2-9.6,5.9
		v19.8h-4.9V89h4.4L242.3,93.4z"/>
	<path class="st0" d="M299.7,112.4c0,0.3,0,0.6,0.1,0.9c0.1,0.3,0.3,0.6,0.5,0.8c0.2,0.2,0.5,0.4,0.8,0.5c0.3,0.1,0.6,0.1,0.9,0.1
		c0.8,0,1.5-0.2,2.3-0.4v4c-1.2,0.4-2.4,0.7-3.7,0.7c-2.8,0-4.6-1.2-5.4-3.5c-3.2,2.6-7.3,4-11.5,3.9c-2.6,0.1-5.2-0.7-7.3-2.3
		c-1-0.8-1.8-1.8-2.3-3c-0.5-1.2-0.8-2.4-0.7-3.7c0-3.5,1.3-6,3.9-7.6c2.9-1.6,6.1-2.5,9.4-2.4c2.7,0,5.5,0.3,8.2,0.9v-1
		c0-1-0.1-2-0.5-2.9c-0.4-0.9-1-1.8-1.7-2.4c-1.7-1.4-4-2.1-6.2-2c-3.7,0-7.4,0.7-10.7,2.2v-4.8c3.6-1.3,7.4-1.9,11.2-2
		c4,0,7.1,1.1,9.4,3.2c2.3,2.1,3.4,5.2,3.4,9.3L299.7,112.4z M278.4,110c0,0.7,0.1,1.5,0.4,2.1c0.3,0.7,0.8,1.2,1.4,1.6
		c1.3,0.9,2.9,1.3,4.5,1.3c1.9,0,3.8-0.3,5.5-1.1c1.7-0.7,3.3-1.8,4.6-3.2v-5.4c-2.5-0.5-5-0.8-7.5-0.9c-2.2-0.1-4.4,0.4-6.4,1.3
		c-0.8,0.4-1.5,1-2,1.7C278.5,108.2,278.3,109.1,278.4,110z"/>
	<path class="st0" d="M313,114.8c-2.7-3-4.2-7-4.2-11.1s1.5-8,4.2-11.1c1.3-1.4,3-2.6,4.8-3.3c1.8-0.8,3.8-1.1,5.7-1.1
		c2.3,0,4.5,0.5,6.6,1.5c2.1,1,3.9,2.4,5.3,4.2V89h4.4v29.5c0,4.7-1.6,8.3-4.7,10.6c-3.3,2.4-7.3,3.7-11.4,3.5
		c-4.2,0.1-8.3-0.9-12-2.8v-4.8c3.5,2,7.4,3,11.4,3c3,0.1,6-0.7,8.5-2.3c2.2-1.5,3.3-4,3.2-7.4v-4.5c-1.3,1.6-3,2.9-4.8,3.8
		c-1.9,0.9-3.9,1.4-5.9,1.5c-2.1,0.1-4.1-0.3-6-1C316.2,117.4,314.5,116.3,313,114.8L313,114.8z M335,100.1
		c-0.9-2.1-2.4-3.8-4.2-5.2c-1.9-1.4-4.3-2.1-6.6-2.1c-1.4,0-2.7,0.2-4,0.7c-1.3,0.5-2.4,1.3-3.4,2.3c-1.9,2.2-3,5-3,7.9
		c0,2.9,1.1,5.7,3,7.9c1,1,2.1,1.8,3.4,2.3c1.3,0.5,2.6,0.8,4,0.7c2.4,0,4.7-0.6,6.6-1.9c1.8-1.2,3.3-2.8,4.2-4.7V100.1z"/>
	<path class="st0" d="M348.9,103.7c0-4.8,1.5-8.6,4.4-11.4c2.7-2.7,6.4-4.1,10.2-4.1c3.2-0.1,6.3,0.8,8.9,2.7c2.2,1.6,3.9,4,4.6,6.7
		c0.7,2.7,0.8,5.5,0.1,8.3h-23.4c0.1,1.3,0.5,2.6,1.1,3.8c0.7,1.1,1.6,2.1,2.7,2.8c2.5,1.5,5.4,2.3,8.3,2.2c3.4,0.1,6.7-0.8,9.7-2.4
		v4.8c-3.3,1.5-6.8,2.3-10.4,2.2c-4.2,0.2-8.4-1.2-11.7-3.9C350.4,112.6,348.9,108.8,348.9,103.7z M372.8,101.6
		c0.1-0.9,0.1-1.8-0.2-2.7c-0.3-1-0.7-2-1.3-2.8c-0.7-1-1.7-1.8-2.9-2.3c-1.9-0.8-3.9-1.1-5.9-0.8c-2,0.2-3.9,1-5.6,2.3
		c-1,0.8-1.7,1.8-2.3,2.9c-0.5,1.1-0.8,2.3-0.9,3.6L372.8,101.6z"/>
</g>
<linearGradient id="SVGID_1_" gradientUnits="userSpaceOnUse" x1="20.3628" y1="143.9062" x2="94.7722" y2="-13.9437">
	<stop  offset="5.497001e-02" style="stop-color:#000AF0"/>
	<stop  offset="7.122091e-02" style="stop-color:#0009E8"/>
	<stop  offset="0.12" style="stop-color:#0007DB"/>
	<stop  offset="0.16" style="stop-color:#0006D3"/>
	<stop  offset="0.24" style="stop-color:#0006D1"/>
	<stop  offset="0.41" style="stop-color:#0005B8"/>
	<stop  offset="0.59" style="stop-color:#0004A6"/>
	<stop  offset="0.78" style="stop-color:#00039A"/>
	<stop  offset="0.86" style="stop-color:#000398"/>
	<stop  offset="0.93" style="stop-color:#000397"/>
</linearGradient>
<path class="st1" d="M95.9,0.8c-0.1,0-0.6,0.1-0.7,0.1L17.4,15.1c-1.1,0.2-2.3,0.5-3.3,0.9c-3.2,1.1-6,2.8-8.4,4.9
	c-0.4,0.4-0.8,0.8-1.1,1.2C1.3,26-0.3,31.2,0.1,36.2C0.1,62.4,0,88.6,0,114.7c0,10.4,9.4,18.1,19.5,16.3c26.7-5,53.2-9.1,79.8-15
	c0.5-0.1,1.2-0.3,1.8-0.5c1.2-0.4,2.3-0.8,3.3-1.4c1.1-0.6,2.3-1.3,3.2-2.2c4.6-4.2,7.1-10.5,7.1-17.1V17.2
	C114.8,7.1,105.8-0.6,95.9,0.8z"/>
<linearGradient id="SVGID_2_" gradientUnits="userSpaceOnUse" x1="28.3759" y1="134.1695" x2="125.4154" y2="38.0423" gradientTransform="matrix(1 0 0 -1 0 132.0472)">
	<stop  offset="0" style="stop-color:#000ADF"/>
	<stop  offset="1" style="stop-color:#364DFF"/>
</linearGradient>
<path class="st2" d="M114.8,94.8l0-77.6c0-10.4-9.4-18.1-19.5-16.3L17.4,15.1c-4.5,0.8-8.5,2.9-11.7,5.8c-0.4,0.4-0.8,0.8-1.1,1.2
	C-2,30-1.8,42.5,7.3,50l75.2,61.9c6.8,5.5,15.4,5.6,21.9,2.2c1.1-0.6,2.3-1.3,3.2-2.2C112.3,107.7,114.8,101.4,114.8,94.8z"/>
</svg>
