<?xml version="1.0" encoding="utf-8"?>
<!-- Generator: Adobe Illustrator 24.3.0, SVG Export Plug-In . SVG Version: 6.00 Build 0)  -->
<svg version="1.1" id="Слой_1" xmlns="http://www.w3.org/2000/svg" xmlns:xlink="http://www.w3.org/1999/xlink" x="0px" y="0px"
	 viewBox="0 0 40.9 46.5" style="enable-background:new 0 0 40.9 46.5;" xml:space="preserve">
<style type="text/css">
	.st0{fill:url(#SVGID_1_);}
	.st1{fill:url(#SVGID_2_);}
</style>
<linearGradient id="SVGID_1_" gradientUnits="userSpaceOnUse" x1="7.2479" y1="51.028" x2="33.7487" y2="-5.19">
	<stop  offset="5.497001e-02" style="stop-color:#000AF0"/>
	<stop  offset="7.122091e-02" style="stop-color:#0009E8"/>
	<stop  offset="0.12" style="stop-color:#0007DB"/>
	<stop  offset="0.16" style="stop-color:#0006D3"/>
	<stop  offset="0.24" style="stop-color:#0006D1"/>
	<stop  offset="0.41" style="stop-color:#0005B8"/>
	<stop  offset="0.59" style="stop-color:#0004A6"/>
	<stop  offset="0.78" style="stop-color:#00039A"/>
	<stop  offset="0.86" style="stop-color:#000398"/>
	<stop  offset="0.93" style="stop-color:#000397"/>
</linearGradient>
<path class="st0" d="M34.2,0.1c0,0-0.2,0-0.3,0L6.2,5.2C5.8,5.2,5.4,5.3,5,5.5c-1.1,0.4-2.1,1-3,1.8C1.9,7.4,1.7,7.5,1.6,7.6
	C0.5,9-0.1,10.9,0,12.7c0,9.3,0,18.6,0,28c0,3.7,3.3,6.5,7,5.8c9.5-1.8,19-3.3,28.4-5.4c0.2,0,0.4-0.1,0.6-0.2
	c0.4-0.1,0.8-0.3,1.2-0.5c0.4-0.2,0.8-0.5,1.1-0.8c1.7-1.5,2.5-3.7,2.5-6.1V5.9C40.9,2.3,37.7-0.4,34.2,0.1z"/>
<linearGradient id="SVGID_2_" gradientUnits="userSpaceOnUse" x1="10.1017" y1="47.0271" x2="44.6622" y2="12.7915" gradientTransform="matrix(1 0 0 -1 0 46.0472)">
	<stop  offset="0" style="stop-color:#000ADF"/>
	<stop  offset="1" style="stop-color:#364DFF"/>
</linearGradient>
<path class="st1" d="M40.9,33.5l0-27.6c0-3.7-3.3-6.5-7-5.8L6.2,5.2c-1.6,0.3-3,1-4.2,2C1.9,7.3,1.7,7.5,1.6,7.6
	c-2.3,2.8-2.3,7.3,1,10l26.8,22c2.4,2,5.5,2,7.8,0.8c0.4-0.2,0.8-0.5,1.1-0.8C40,38.1,40.9,35.9,40.9,33.5z"/>
</svg>
